hryt/obu/OBU2HMI$VehiclePositionOrBuilder.class
hryt/obu/OBU2HMI$VehicleIMUSeat.class
hryt/obu/OBU2HMI$Coordinate$Builder.class
hryt/common/HeaderOuterClass$1.class
com/hryt/adas/evaluate/HMIProto$EvaluateDataOrBuilder.class
hryt/obu/OBU2HMI$VehiclePosition$1.class
hryt/obu/OBU2HMI$1.class
hryt/obu/OBU2HMI$VehiclePosition.class
hryt/common/HeaderOuterClass.class
hryt/obu/OBU2HMI$OBUHeart$Builder.class
com/exceeddata/mqtt/publish/HMISend.class
hryt/obu/OBU2HMI.class
hryt/obu/OBU2HMI$CoordinateOrBuilder.class
com/hryt/adas/evaluate/TSPProto$1.class
hryt/obu/OBU2HMI$VehiclePosition$Builder.class
hryt/common/HeaderOuterClass$Header.class
hryt/obu/OBU2HMI$VehicleIMUData.class
hryt/obu/OBU2HMI$OBUHeartOrBuilder.class
hryt/obu/OBU2HMI$OBUHeart$1.class
com/hryt/adas/evaluate/TSPProto$TSPAck$Builder.class
hryt/obu/OBU2HMI$VehicleIMUDataOrBuilder.class
com/hryt/adas/evaluate/TSPProto$TSPAck.class
hryt/obu/OBU2HMI$VehicleIMUData$Builder.class
com/hryt/adas/evaluate/HMIProto.class
hryt/obu/OBU2HMI$OBUHeart.class
hryt/obu/OBU2HMI$VehicleIMUSeat$Builder.class
hryt/obu/OBU2HMI$VehicleIMUData$1.class
hryt/obu/OBU2HMI$VehicleIMUSeat$1.class
com/hryt/adas/evaluate/TSPProto$TSPAck$1.class
com/hryt/adas/evaluate/TSPProto.class
hryt/common/HeaderOuterClass$Header$Builder.class
com/hryt/adas/evaluate/TSPProto$TSPAckOrBuilder.class
hryt/obu/OBU2HMI$Coordinate$1.class
hryt/obu/OBU2HMI$VehicleIMUSeatOrBuilder.class
hryt/common/HeaderOuterClass$Header$1.class
hryt/common/HeaderOuterClass$HeaderOrBuilder.class
hryt/obu/OBU2HMI$Coordinate.class
com/hryt/adas/evaluate/HMIProto$1.class
com/exceeddata/mqtt/publish/Publish.class
com/exceeddata/mqtt/publish/Publish_Main.class
com/exceeddata/mqtt/publish/Subscriber.class
com/hryt/adas/evaluate/HMIProto$EvaluateData$1.class
com/hryt/adas/evaluate/HMIProto$EvaluateData$Builder.class
com/exceeddata/mqtt/publish/Main.class
com/hryt/adas/evaluate/HMIProto$EvaluateData.class
